1F638BCF683AB2769F1F6A5E76C9328A.cache.js
user.agent ie10

605AAEBE3A6FF70531C3DE39F90B52F4.cache.js
user.agent gecko1_8

645BE8B47480C0DD0F53A8F5FF1035B0.cache.js
user.agent ie9

A07A8544ADE588CFDEE14860FD06753F.cache.js
user.agent ie8

FBF8E7BAD35C0477EEE5E17715D2B10E.cache.js
user.agent safari

Devmode:devmode.js